{
  "id": "547855",
  "season": "2021",
  "kind": "pool",
  "league": "OL",

  "date": "11.09.2021",
  "start": "16:00",
  "home": {
    "id": 6,
    "name": "BC Frankfurt"
  },
  "guest": {
    "id": 4,
    "name": "1. PBC Bad Wildungen"
  },
  "host": {
    "id": 6,
    "name": "BC Frankfurt"
  },
  "games": [
    {
      "type": "straight",
      "home": {
        "id": 123,
        "name": "Olaf Matthias",
        "balls": 100,
        "runs": 35,
        "high": 11
      },
      "guest": {
        "id": 456,
        "name": "Torsten Schild",
        "balls": 72,
        "runs": 34,
        "high": 15
      },
      "result": "1:0"
    },
    {
      "type": "8ball",
      "home": {
        "id": 123,
        "name": "Hannes Luettringhaus",
        "frames": 6
      },
      "guest": {
        "id": 456,
        "name": "Andreas Klauser",
        "frames": 1
      },
      "result": "1:0"
    },
    {
      "type": "9ball",
      "home": {
        "id": 123,
        "name": "Yusuke Tanaka",
        "frames": 6
      },
      "guest": {
        "id": 456,
        "name": "Gleb Belger",
        "frames": 7
      },
      "result": "0:1"
    },
    {
      "type": "10ball",
      "home": {
        "id": 123,
        "name": "Robert van den Bossche",
        "frames": 6
      },
      "guest": {
        "id": 456,
        "name": "Conny Teichert",
        "frames": 4
      },
      "result": "1:0"
    },
    {
      "type": "straight",
      "home": {
        "id": 123,
        "name": "Yusuke Tanaka",
        "balls": 20,
        "runs": 12,
        "high": 11
      },
      "guest": {
        "id": 456,
        "name": "Andreas Klauser",
        "balls": 100,
        "runs": 11,
        "high": 65
      },
      "result": "0:1"
    },
    {
      "type": "8ball",
      "home": {
        "id": 123,
        "name": "Hannes Luettringhaus",
        "frames": 6
      },
      "guest": {
        "id": 456,
        "name": "Andreas Klauser",
        "frames": 1
      },
      "result": "1:0"
    },
    {
      "type": "10ball",
      "home": {
        "id": 123,
        "name": "Yusuke Tanaka",
        "frames": 6
      },
      "guest": {
        "id": 456,
        "name": "Gleb Belger",
        "frames": 7
      },
      "result": "0:1"
    },
    {
      "type": "9ball",
      "home": {
        "id": 123,
        "name": "Robert van den Bossche",
        "frames": 6
      },
      "guest": {
        "id": 456,
        "name": "Conny Teichert",
        "frames": 4
      },
      "result": "1:0"
    }
  ],
  "result": "6:2"
}