{
  "id": "s-001",
  "season": "2021",
  "kind": "snooker",
  "league": "OL",

  "date": "11.09.2021",
  "start": "16:00",
  "home": {
    "id": 6,
    "name": "BC Frankfurt"
  },
  "guest": {
    "id": 4,
    "name": "1. PBC Bad Wildungen"
  },
  "host": {
    "id": 6,
    "name": "BC Frankfurt"
  },
  "games": [
    {
      "type": "snooker",
      "home": {
        "id": 123,
        "name": "Hannes Luettringhaus",
        "frames": 3,
        "high": null
      },
      "guest": {
        "id": 456,
        "name": "Andreas Klauser",
        "frames": 2,
        "high": 34
      },
      "result": "1:0"
    },
    {
      "type": "snooker",
      "home": {
        "id": 123,
        "name": "Yusuke Tanaka",
        "frames": 2,
        "high": null
      },
      "guest": {
        "id": 456,
        "name": "Gleb Belger",
        "frames": 7,
        "high": null
      },
      "result": "0:1"
    },
    {
      "type": "snooker",
      "home": {
        "id": 123,
        "name": "Robert van den Bossche",
        "frames": 6
      },
      "guest": {
        "id": 456,
        "name": "Conny Teichert",
        "frames": 4
      },
      "result": "1:0"
    },
    {
      "type": "snooker",
      "home": {
        "id": 123,
        "name": "Hannes Luettringhaus",
        "frames": 6,
        "high": 40
      },
      "guest": {
        "id": 456,
        "name": "Andreas Klauser",
        "frames": 1
      },
      "result": "1:0"
    },
    {
      "type": "snooker",
      "home": {
        "id": 123,
        "name": "Yusuke Tanaka",
        "frames": 6
      },
      "guest": {
        "id": 456,
        "name": "Gleb Belger",
        "frames": 7
      },
      "result": "0:1"
    },
    {
      "type": "snooker",
      "home": {
        "id": 123,
        "name": "Robert van den Bossche",
        "frames": 6
      },
      "guest": {
        "id": 456,
        "name": "Conny Teichert",
        "frames": 4
      },
      "result": "1:0"
    }
  ],
  "result": "4:2"
}