{
  "positions": [
    {
      "team": {
        "id": 1,
        "name": "PBC Pool Sharks Ortenberg"
      },
      "plays": 7,
      "won": 6,
      "draw": 1,
      "loss": 0,
      "points": 19,
      "g_won": 43,
      "g_loss": 13
    },
    {
      "team": {
        "id": 2,
        "name": "SG Johannesberg 2"
      },
      "plays": 7,
      "won": 4,
      "draw": 1,
      "loss": 2,
      "points": 13,
      "g_won": 33,
      "g_loss": 23
    },
    {
      "team": {
        "id": 3,
        "name": "TuS Makkabi Frankfurt"
      },
      "plays": 2,
      "won": 7,
      "draw": 4,
      "loss": 0,
      "points": 12,
      "g_won": 31,
      "g_loss": 25
    },
    {
      "team": {
        "id": 4,
        "name": "1. PBC Bad Wildungen"
      },
      "plays": 7,
      "won": 3,
      "draw": 1,
      "loss": 3,
      "points": 10,
      "g_won": 28,
      "g_loss": 28
    },
    {
      "team": {
        "id": 5,
        "name": "1.BSC Dill Katzenfurt"
      },
      "plays": 6,
      "won": 3,
      "draw": 1,
      "loss": 2,
      "points": 10,
      "g_won": 22,
      "g_loss": 26
    },
    {
      "team": {
        "id": 6,
        "name": "BC Frankfurt"
      },
      "plays": 6,
      "won": 2,
      "draw": 1,
      "loss": 3,
      "points": 7,
      "g_won": 23,
      "g_loss": 25
    },
    {
      "team": {
        "id": 7,
        "name": "PBC Ronshausen 2"
      },
      "plays": 7,
      "won": 1,
      "draw": 2,
      "loss": 4,
      "points": 5,
      "g_won": 20,
      "g_loss": 36
    },
    {
      "team": {
        "id": 8,
        "name": "PDV Marburg"
      },
      "plays": 7,
      "won": 0,
      "draw": 1,
      "loss": 6,
      "points": 1,
      "g_won": 16,
      "g_loss": 40
    }
  ],
  "first_round": [
    {
      "matchday": 1,
      "matches": [
        {
          "id": 11,
          "date": "11.09.2021",
          "start": "16:00",
          "home": {
            "id": 6,
            "name": "BC Frankfurt"
          },
          "guest": {
            "id": 4,
            "name": "1. PBC Bad Wildungen"
          },
          "host": {
            "id": 6,
            "name": "BC Frankfurt"
          },
          "result": "6:2"
        },
        {
          "id": 12,
          "date": "11.09.2021",
          "start": "16:00",
          "home": {
            "id": 2,
            "name": "SG Johannesberg 2"
          },
          "guest": {
            "id": 8,
            "name": "PDV Marburg"
          },
          "host": {
            "id": 2,
            "name": "SG Johannesberg 2"
          },
          "result": "6:2"
        },
        {
          "id": 13,
          "date": "11.09.2021",
          "start": "16:00",
          "home": {
            "id": 1,
            "name": "PBC Pool Sharks Ortenberg"
          },
          "guest": {
            "id": 5,
            "name": "1.BSC Dill Katzenfurt"
          },
          "host": {
            "id": 1,
            "name": "PBC Pool Sharks Ortenberg"
          },
          "result": "8:0"
        },
        {
          "id": 14,
          "date": "11.09.2021",
          "start": "16:00",
          "home": {
            "id": 7,
            "name": "PBC Ronshausen 2"
          },
          "guest": {
            "id": 3,
            "name": "TuS Makkabi Frankfurt"
          },
          "host": {
            "id": 7,
            "name": "PBC Ronshausen 2"
          },
          "result": "1:7"
        }
      ]
    },
    {
      "matchday": 2,
      "matches": [
        {
          "id": 21,
          "date": "25.09.2021",
          "start": "16:00",
          "home": {
            "id": 6,
            "name": "BC Frankfurt"
          },
          "guest": {
            "id": 4,
            "name": "1. PBC Bad Wildungen"
          },
          "host": {
            "id": 6,
            "name": "BC Frankfurt"
          },
          "result": "6:2"
        },
        {
          "id": 22,
          "date": "25.09.2021",
          "start": "16:00",
          "home": {
            "id": 2,
            "name": "SG Johannesberg 2"
          },
          "guest": {
            "id": 8,
            "name": "PDV Marburg"
          },
          "host": {
            "id": 2,
            "name": "SG Johannesberg 2"
          },
          "result": "6:2"
        },
        {
          "id": 23,
          "date": "25.09.2021",
          "start": "16:00",
          "home": {
            "id": 1,
            "name": "PBC Pool Sharks Ortenberg"
          },
          "guest": {
            "id": 5,
            "name": "1.BSC Dill Katzenfurt"
          },
          "host": {
            "id": 1,
            "name": "PBC Pool Sharks Ortenberg"
          },
          "result": "8:0"
        },
        {
          "id": 24,
          "date": "25.09.2021",
          "start": "16:00",
          "home": {
            "id": 7,
            "name": "PBC Ronshausen 2"
          },
          "guest": {
            "id": 3,
            "name": "TuS Makkabi Frankfurt"
          },
          "host": {
            "id": 7,
            "name": "PBC Ronshausen 2"
          },
          "result": "1:7"
        }
      ]
    }
  ],
  "second_round": [
    {
      "matchday": 10,
      "matches": [
        {
          "id": 11,
          "date": "26.02.2021",
          "start": "16:00",
          "home": {
            "id": 6,
            "name": "BC Frankfurt"
          },
          "guest": {
            "id": 4,
            "name": "1. PBC Bad Wildungen"
          },
          "host": {
            "id": 6,
            "name": "BC Frankfurt"
          },
          "result": "6:2"
        },
        {
          "id": 12,
          "date": "26.02.2021",
          "start": "16:00",
          "home": {
            "id": 2,
            "name": "SG Johannesberg 2"
          },
          "guest": {
            "id": 8,
            "name": "PDV Marburg"
          },
          "host": {
            "id": 2,
            "name": "SG Johannesberg 2"
          },
          "result": "6:2"
        },
        {
          "id": 13,
          "date": "26.02.2021",
          "start": "16:00",
          "home": {
            "id": 1,
            "name": "PBC Pool Sharks Ortenberg"
          },
          "guest": {
            "id": 5,
            "name": "1.BSC Dill Katzenfurt"
          },
          "host": {
            "id": 1,
            "name": "PBC Pool Sharks Ortenberg"
          },
          "result": "8:0"
        },
        {
          "id": 14,
          "date": "26.02.2021",
          "start": "16:00",
          "home": {
            "id": 7,
            "name": "PBC Ronshausen 2"
          },
          "guest": {
            "id": 3,
            "name": "TuS Makkabi Frankfurt"
          },
          "host": {
            "id": 7,
            "name": "PBC Ronshausen 2"
          },
          "result": "1:7"
        }
      ]
    },
    {
      "matchday": 11,
      "matches": [
        {
          "id": 21,
          "date": "12.03.2022",
          "start": "16:00",
          "home": {
            "id": 6,
            "name": "BC Frankfurt"
          },
          "guest": {
            "id": 4,
            "name": "1. PBC Bad Wildungen"
          },
          "host": {
            "id": 6,
            "name": "BC Frankfurt"
          },
          "result": null
        },
        {
          "id": 22,
          "date": "19.03.2022",
          "start": "16:00",
          "home": {
            "id": 2,
            "name": "SG Johannesberg 2"
          },
          "guest": {
            "id": 8,
            "name": "PDV Marburg"
          },
          "host": {
            "id": 2,
            "name": "SG Johannesberg 2"
          },
          "result": null
        },
        {
          "id": 23,
          "date": "12.03.2022",
          "start": "16:00",
          "home": {
            "id": 1,
            "name": "PBC Pool Sharks Ortenberg"
          },
          "guest": {
            "id": 5,
            "name": "1.BSC Dill Katzenfurt"
          },
          "host": {
            "id": 1,
            "name": "PBC Pool Sharks Ortenberg"
          },
          "result": null
        },
        {
          "id": 24,
          "date": "12.03.2022",
          "start": "16:00",
          "home": {
            "id": 7,
            "name": "PBC Ronshausen 2"
          },
          "guest": {
            "id": 3,
            "name": "TuS Makkabi Frankfurt"
          },
          "host": {
            "id": 7,
            "name": "PBC Ronshausen 2"
          },
          "result": "1:7"
        }
      ]
    }
  ]
}