[
  {
    "id": 6,
    "name": "BC Frankfurt"
  },
  {
    "id": 4,
    "name": "1. PBC Bad Wildungen"
  },
  {
    "id": 2,
    "name": "SG Johannesberg 2"
  },
  {
    "id": 8,
    "name": "PDV Marburg"
  },
  {
    "id": 1,
    "name": "PBC Pool Sharks Ortenberg"
  },
  {
    "id": 5,
    "name": "1.BSC Dill Katzenfurt"
  },
  {
    "id": 7,
    "name": "PBC Ronshausen 2"
  }
]